{
    "data": {
        "вул. Михайла Ломоносова": {
            "19/11": {
				"coordinates":[
                    [50.391674,30.494752],
                    [50.391585,30.494794],
                    [50.391264,30.492880],
                    [50.391347,30.492797]
                ], 
				"picture":"images/56_tn.jpg",
                "info":"'В цьому будинку народився велчний політичний діяч: <br>' +'Калініченко Дмитро'",
                "linktoforum":"https://www.google.com.ua"
			},
            "5/1": {
				"coordinates":[
                    [50.392596, 30.499878],
                    [50.392500, 30.499915],
                    [50.392367, 30.499186],
                    [50.392470, 30.499154]
                ], 
				"picture":"images/56_tn.jpg",
                "info":"'В цьому #2 будинку народився велчний політичний діяч: <br>' +'Калініченко Дмитро'",
                "linktoforum":"https://www.google.com.ua"
			}
        }
    }
}